------------------------------------------------------------------
-- This file is preloaded into Data memory of IntDLX
-- Default value in memory is 00
-- Each line corresponds to aligned 32-bit value in BIG Endian form
-- Address corresponds to bits 15:0 of data mem address (other bits are ignored)
-- Maximal address of Data is (0xFFFC)
-- Note that data and program memories are disjoint in this example (Harvard architecture)
-------------------------------------------------------------------
width : 8
default : 00
0000: 00 00 00 0a

0004: 00 00 00 01
0008: 00 00 00 02
000c: 00 00 00 03
0010: 00 00 00 04
0014: 00 00 00 05
0018: 00 00 00 06
001c: 00 00 00 07
0020: 00 00 00 08
0024: 00 00 00 09
0028: 00 00 00 0a
002c: 00 00 00 0b
0030: 00 00 00 0c
0034: 00 00 00 0d
0038: 00 00 00 0e
003c: 00 00 00 0f
0040: 00 00 00 10
0044: 00 00 00 11
0048: 00 00 00 12
004c: 00 00 00 13
0050: 00 00 00 14
0054: 00 00 00 15
0058: 00 00 00 16
005c: 00 00 00 17
0060: 00 00 00 18
0064: 00 00 00 19

02a8: 00 00 00 15 
02ac: 00 00 00 01
02b0: 00 00 00 14
02b4: 00 00 00 0B
02b8: 00 00 00 0A
02bc: 00 00 00 16
02c0: 00 00 00 02
02c4: 00 00 00 13
02c8: 00 00 00 0C
02cc: 00 00 00 09
02d0: 00 00 00 17
02d4: 00 00 00 03
02d8: 00 00 00 12
02dc: 00 00 00 0D
02e0: 00 00 00 08
02e4: 00 00 00 18
02e8: 00 00 00 04
02ec: 00 00 00 11
02f0: 00 00 00 0E
02f4: 00 00 00 07
02f8: 00 00 00 19
02fc: 00 00 00 05
0300: 00 00 00 10
0304: 00 00 00 0F
0308: 00 00 00 06

054c: 00 00 00 00
0550: 00 00 00 00
