width : 8
default : 00
0400: 00 00 00 03
0404: 00 00 00 01
0408: 00 00 00 02
040C: 00 00 00 09
0410: 00 00 00 02
0414: 00 00 00 08
0418: 00 00 00 03
041C: 00 00 00 08
0420: 00 00 00 00
0424: 00 00 00 00
0428: 00 00 00 07
042C: 00 00 00 00
0430: 00 00 00 00
0434: 00 00 00 05
0438: 00 00 00 05
043C: 00 00 00 06
0440: 00 00 00 04
0444: 00 00 00 07
0448: 00 00 00 00
044C: 00 00 00 07
0450: 00 00 00 09
0454: 00 00 00 02
0458: 00 00 00 01
045C: 00 00 00 01
0460: 00 00 00 00
0464: 00 00 00 06
0468: 00 00 00 03
046C: 00 00 00 08
0470: 00 00 00 08
0474: 00 00 00 07
0478: 00 00 00 06
047C: 00 00 00 04
0480: 00 00 00 04
0484: 00 00 00 08
0488: 00 00 00 08
048C: 00 00 00 01
0490: 00 00 00 01
0494: 00 00 00 05
0498: 00 00 00 06
049C: 00 00 00 06
04A0: 00 00 00 07
04A4: 00 00 00 06
04A8: 00 00 00 08
04AC: 00 00 00 03
04B0: 00 00 00 06
04B4: 00 00 00 02
04B8: 00 00 00 09
04BC: 00 00 00 00
04C0: 00 00 00 04
04C4: 00 00 00 07
04C8: 00 00 00 03
04CC: 00 00 00 03
04D0: 00 00 00 06
04D4: 00 00 00 05
04D8: 00 00 00 01
04DC: 00 00 00 06
04E0: 00 00 00 02
04E4: 00 00 00 07
04E8: 00 00 00 05
04EC: 00 00 00 07
04F0: 00 00 00 09
04F4: 00 00 00 00
04F8: 00 00 00 05
04FC: 00 00 00 08
0500: 00 00 00 05
0504: 00 00 00 08
0508: 00 00 00 01
050C: 00 00 00 00
0510: 00 00 00 07
0514: 00 00 00 00
0518: 00 00 00 08
051C: 00 00 00 07
0520: 00 00 00 07
0524: 00 00 00 08
0528: 00 00 00 08
052C: 00 00 00 08
0530: 00 00 00 03
0534: 00 00 00 00
0538: 00 00 00 01
053C: 00 00 00 07
0540: 00 00 00 02
0544: 00 00 00 06
0548: 00 00 00 00
054C: 00 00 00 01
0550: 00 00 00 05
0554: 00 00 00 07
0558: 00 00 00 06
055C: 00 00 00 03
0560: 00 00 00 06
0564: 00 00 00 00
0568: 00 00 00 08
056C: 00 00 00 01
0570: 00 00 00 02
0574: 00 00 00 03
0578: 00 00 00 04
057C: 00 00 00 08
0580: 00 00 00 04
0584: 00 00 00 01
0588: 00 00 00 00
058C: 00 00 00 05
0590: 00 00 00 00
0594: 00 00 00 04
0598: 00 00 00 04
059C: 00 00 00 03
05A0: 00 00 00 07
05A4: 00 00 00 05
05A8: 00 00 00 08
05AC: 00 00 00 04
05B0: 00 00 00 04
05B4: 00 00 00 05
05B8: 00 00 00 03
05BC: 00 00 00 02
05C0: 00 00 00 03
05C4: 00 00 00 04
05C8: 00 00 00 06
05CC: 00 00 00 04
05D0: 00 00 00 09
05D4: 00 00 00 01
05D8: 00 00 00 03
05DC: 00 00 00 05
05E0: 00 00 00 09
05E4: 00 00 00 02
05E8: 00 00 00 03
05EC: 00 00 00 02
05F0: 00 00 00 03
05F4: 00 00 00 09
05F8: 00 00 00 08
05FC: 00 00 00 05
0600: 00 00 00 09
0604: 00 00 00 02
0608: 00 00 00 00
060C: 00 00 00 02
0610: 00 00 00 04
0614: 00 00 00 03
0618: 00 00 00 07
061C: 00 00 00 04
0620: 00 00 00 03
0624: 00 00 00 06
0628: 00 00 00 04
062C: 00 00 00 01
0630: 00 00 00 04
0634: 00 00 00 05
0638: 00 00 00 08
063C: 00 00 00 04
0640: 00 00 00 09
0644: 00 00 00 08
0648: 00 00 00 06
064C: 00 00 00 01
0650: 00 00 00 04
0654: 00 00 00 06
0658: 00 00 00 03
065C: 00 00 00 06
0660: 00 00 00 02
0664: 00 00 00 04
0668: 00 00 00 01
066C: 00 00 00 04
0670: 00 00 00 06
0674: 00 00 00 01
0678: 00 00 00 04
067C: 00 00 00 04
0680: 00 00 00 07
0684: 00 00 00 04
0688: 00 00 00 01
068C: 00 00 00 06
0690: 00 00 00 07
0694: 00 00 00 07
0698: 00 00 00 01
069C: 00 00 00 01
06A0: 00 00 00 02
06A4: 00 00 00 05
06A8: 00 00 00 07
06AC: 00 00 00 06
06B0: 00 00 00 03
06B4: 00 00 00 00
06B8: 00 00 00 06
06BC: 00 00 00 04
06C0: 00 00 00 01
06C4: 00 00 00 08
06C8: 00 00 00 08
06CC: 00 00 00 02
06D0: 00 00 00 06
06D4: 00 00 00 09
06D8: 00 00 00 01
06DC: 00 00 00 01
06E0: 00 00 00 04
06E4: 00 00 00 09
06E8: 00 00 00 03
06EC: 00 00 00 03
06F0: 00 00 00 06
06F4: 00 00 00 01
06F8: 00 00 00 00
06FC: 00 00 00 03
0700: 00 00 00 05
0704: 00 00 00 02
0708: 00 00 00 02
070C: 00 00 00 03
0710: 00 00 00 04
0714: 00 00 00 05
0718: 00 00 00 08
071C: 00 00 00 05
0720: 00 00 00 08
0724: 00 00 00 04
0728: 00 00 00 02
072C: 00 00 00 04
0730: 00 00 00 02
0734: 00 00 00 09
0738: 00 00 00 04
073C: 00 00 00 07
0740: 00 00 00 00
0744: 00 00 00 03
0748: 00 00 00 00
074C: 00 00 00 07
0750: 00 00 00 07
0754: 00 00 00 01
0758: 00 00 00 06
075C: 00 00 00 08
0760: 00 00 00 03
0764: 00 00 00 01
0768: 00 00 00 02
076C: 00 00 00 03
0770: 00 00 00 02
0774: 00 00 00 03
0778: 00 00 00 06
077C: 00 00 00 03
0780: 00 00 00 07

07E8: 00 00 00 05
07EC: 00 00 00 00
07F0: 00 00 00 04
07F4: 00 00 00 06
07F8: 00 00 00 07
07FC: 00 00 00 08
0800: 00 00 00 02
0804: 00 00 00 08
0808: 00 00 00 07
080C: 00 00 00 06
0810: 00 00 00 04
0814: 00 00 00 06
0818: 00 00 00 08
081C: 00 00 00 03
0820: 00 00 00 05
0824: 00 00 00 00
0828: 00 00 00 02
082C: 00 00 00 02
0830: 00 00 00 06
0834: 00 00 00 03
0838: 00 00 00 04
083C: 00 00 00 01
0840: 00 00 00 07
0844: 00 00 00 07
0848: 00 00 00 07
084C: 00 00 00 05
0850: 00 00 00 04
0854: 00 00 00 06
0858: 00 00 00 09
085C: 00 00 00 00
0860: 00 00 00 00
0864: 00 00 00 02
0868: 00 00 00 09
086C: 00 00 00 08
0870: 00 00 00 03
0874: 00 00 00 05
0878: 00 00 00 00
087C: 00 00 00 06
0880: 00 00 00 04
0884: 00 00 00 06
0888: 00 00 00 04
088C: 00 00 00 02
0890: 00 00 00 04
0894: 00 00 00 08
0898: 00 00 00 00
089C: 00 00 00 09
08A0: 00 00 00 07
08A4: 00 00 00 04
08A8: 00 00 00 00
08AC: 00 00 00 08
08B0: 00 00 00 05
08B4: 00 00 00 01
08B8: 00 00 00 09
08BC: 00 00 00 05
08C0: 00 00 00 08
08C4: 00 00 00 01
08C8: 00 00 00 09
08CC: 00 00 00 05
08D0: 00 00 00 02
08D4: 00 00 00 07
08D8: 00 00 00 03
08DC: 00 00 00 04
08E0: 00 00 00 01
08E4: 00 00 00 04
08E8: 00 00 00 09
08EC: 00 00 00 04
08F0: 00 00 00 04
08F4: 00 00 00 07
08F8: 00 00 00 01
08FC: 00 00 00 03
0900: 00 00 00 09
0904: 00 00 00 03
0908: 00 00 00 01
090C: 00 00 00 03
0910: 00 00 00 02
0914: 00 00 00 03
0918: 00 00 00 00
091C: 00 00 00 03
0920: 00 00 00 00
0924: 00 00 00 09
0928: 00 00 00 06
092C: 00 00 00 09
0930: 00 00 00 09
0934: 00 00 00 09
0938: 00 00 00 00
093C: 00 00 00 00
0940: 00 00 00 03
0944: 00 00 00 04
0948: 00 00 00 07
094C: 00 00 00 06
0950: 00 00 00 08
0954: 00 00 00 07
0958: 00 00 00 01
095C: 00 00 00 03
0960: 00 00 00 02
0964: 00 00 00 04
0968: 00 00 00 01
096C: 00 00 00 02
0970: 00 00 00 07
0974: 00 00 00 01
0978: 00 00 00 00
097C: 00 00 00 04
0980: 00 00 00 06
0984: 00 00 00 04
0988: 00 00 00 09
098C: 00 00 00 07
0990: 00 00 00 03
0994: 00 00 00 03
0998: 00 00 00 00
099C: 00 00 00 05
09A0: 00 00 00 01
09A4: 00 00 00 00
09A8: 00 00 00 02
09AC: 00 00 00 07
09B0: 00 00 00 02
09B4: 00 00 00 00
09B8: 00 00 00 00
09BC: 00 00 00 08
09C0: 00 00 00 04
09C4: 00 00 00 01
09C8: 00 00 00 09
09CC: 00 00 00 07
09D0: 00 00 00 01
09D4: 00 00 00 00
09D8: 00 00 00 05
09DC: 00 00 00 03
09E0: 00 00 00 01
09E4: 00 00 00 04
09E8: 00 00 00 01
09EC: 00 00 00 04
09F0: 00 00 00 00
09F4: 00 00 00 02
09F8: 00 00 00 03
09FC: 00 00 00 07
0A00: 00 00 00 00
0A04: 00 00 00 07
0A08: 00 00 00 09
0A0C: 00 00 00 03
0A10: 00 00 00 07
0A14: 00 00 00 06
0A18: 00 00 00 09
0A1C: 00 00 00 08
0A20: 00 00 00 04
0A24: 00 00 00 02
0A28: 00 00 00 09
0A2C: 00 00 00 01
0A30: 00 00 00 06
0A34: 00 00 00 09
0A38: 00 00 00 08
0A3C: 00 00 00 03
0A40: 00 00 00 03
0A44: 00 00 00 08
0A48: 00 00 00 02
0A4C: 00 00 00 08
0A50: 00 00 00 09
0A54: 00 00 00 07
0A58: 00 00 00 07
0A5C: 00 00 00 08
0A60: 00 00 00 06
0A64: 00 00 00 01
0A68: 00 00 00 05
0A6C: 00 00 00 06
0A70: 00 00 00 09
0A74: 00 00 00 06
0A78: 00 00 00 00
0A7C: 00 00 00 05
0A80: 00 00 00 00
0A84: 00 00 00 09
0A88: 00 00 00 06
0A8C: 00 00 00 09
0A90: 00 00 00 04
0A94: 00 00 00 03
0A98: 00 00 00 04
0A9C: 00 00 00 08
0AA0: 00 00 00 03
0AA4: 00 00 00 08
0AA8: 00 00 00 08
0AAC: 00 00 00 06
0AB0: 00 00 00 01
0AB4: 00 00 00 06
0AB8: 00 00 00 08
0ABC: 00 00 00 03
0AC0: 00 00 00 04
0AC4: 00 00 00 01
0AC8: 00 00 00 01
0ACC: 00 00 00 03
0AD0: 00 00 00 05
0AD4: 00 00 00 06
0AD8: 00 00 00 00
0ADC: 00 00 00 05
0AE0: 00 00 00 08
0AE4: 00 00 00 03
0AE8: 00 00 00 09
0AEC: 00 00 00 01
0AF0: 00 00 00 08
0AF4: 00 00 00 05
0AF8: 00 00 00 07
0AFC: 00 00 00 02
0B00: 00 00 00 05
0B04: 00 00 00 04
0B08: 00 00 00 05
0B0C: 00 00 00 00
0B10: 00 00 00 07
0B14: 00 00 00 03
0B18: 00 00 00 08
0B1C: 00 00 00 04
0B20: 00 00 00 06
0B24: 00 00 00 01
0B28: 00 00 00 01
0B2C: 00 00 00 03
0B30: 00 00 00 05
0B34: 00 00 00 00
0B38: 00 00 00 08
0B3C: 00 00 00 06
0B40: 00 00 00 00
0B44: 00 00 00 09
0B48: 00 00 00 08
0B4C: 00 00 00 07
0B50: 00 00 00 01
0B54: 00 00 00 03
0B58: 00 00 00 06
0B5C: 00 00 00 03
0B60: 00 00 00 02
0B64: 00 00 00 09
0B68: 00 00 00 01
